{
  "name": "Game Boy",
  "cpu": {
    "type": "z80",
    "class": "sm83",
    "manufacturer": "Sharp",
    "clock": 4.19
  },
  "gpu": {
    "type": "ppu",
    "class": "sm83",
    "manufacturer": "Sharp",
    "memory": {
      "capacity": 8192
    }
  },
  "apu": {
  },
  "video": {
    "modes": [
      {
        "width": 160,
        "height": 144,
        "depth": 4
      }
    ]
  }
}
