<?xml version="1.0" encoding="UTF-8" standalone="no"?>
<!-- Created with Inkscape (http://www.inkscape.org/) -->

<svg
   width="68.26667"
   height="68.26667"
   id="svg4864"
   version="1.1"
   inkscape:version="1.1.1 (3bf5ae0d25, 2021-09-20)"
   sodipodi:docname="details.svg"
   inkscape:export-filename="C:\Users\wilkie\occam\object_large.png"
   inkscape:export-xdpi="135"
   inkscape:export-ydpi="135"
   xmlns:inkscape="http://www.inkscape.org/namespaces/inkscape"
   xmlns:sodipodi="http://sodipodi.sourceforge.net/DTD/sodipodi-0.dtd"
   xmlns:xlink="http://www.w3.org/1999/xlink"
   xmlns="http://www.w3.org/2000/svg"
   xmlns:svg="http://www.w3.org/2000/svg"
   xmlns:rdf="http://www.w3.org/1999/02/22-rdf-syntax-ns#"
   xmlns:cc="http://creativecommons.org/ns#"
   xmlns:dc="http://purl.org/dc/elements/1.1/">
  <defs
     id="defs4866">
    <radialGradient
       cx="182.9837"
       cy="395.04871"
       r="148.95309"
       fx="182.9837"
       fy="395.04871"
       id="radialGradient3033"
       xlink:href="#linearGradient3755"
       gradientUnits="userSpaceOnUse"
       gradientTransform="matrix(0.24877343,-0.27034721,0.82983762,0.9018016,-347.19075,-259.35216)" />
    <linearGradient
       id="linearGradient3755">
      <stop
         id="stop3757"
         style="stop-color:#008cbe;stop-opacity:1"
         offset="0" />
      <stop
         id="stop3759"
         style="stop-color:#b2ffff;stop-opacity:1"
         offset="1" />
    </linearGradient>
  </defs>
  <sodipodi:namedview
     id="base"
     pagecolor="#ffffff"
     bordercolor="#666666"
     borderopacity="1.0"
     inkscape:pageopacity="0.0"
     inkscape:pageshadow="2"
     inkscape:zoom="8"
     inkscape:cx="19.3125"
     inkscape:cy="34.4375"
     inkscape:current-layer="layer1"
     showgrid="true"
     inkscape:document-units="px"
     inkscape:grid-bbox="true"
     inkscape:window-width="1920"
     inkscape:window-height="1051"
     inkscape:window-x="-9"
     inkscape:window-y="-9"
     inkscape:window-maximized="1"
     inkscape:snap-others="false"
     inkscape:object-nodes="false"
     inkscape:snap-nodes="false"
     inkscape:snap-global="false"
     inkscape:pagecheckerboard="0" />
  <metadata
     id="metadata4869">
    <rdf:RDF>
      <cc:Work
         rdf:about="">
        <dc:format>image/svg+xml</dc:format>
        <dc:type
           rdf:resource="http://purl.org/dc/dcmitype/StillImage" />
      </cc:Work>
    </rdf:RDF>
  </metadata>
  <g
     id="layer1"
     inkscape:label="Layer 1"
     inkscape:groupmode="layer">
    <path
       id="rect208"
       style="fill:#008080;stroke:none;stroke-width:59.6701;stroke-linecap:round;stroke-linejoin:round"
       d="M 7.7480469 6.3222656 C 5.912854 6.3222656 4.4355469 7.7995727 4.4355469 9.6347656 L 4.4355469 26.630859 C 4.4355469 28.466052 5.912854 29.945312 7.7480469 29.945312 L 24.744141 29.945312 C 26.579334 29.945312 28.056641 28.466052 28.056641 26.630859 L 28.056641 9.6347656 C 28.056641 7.7995727 26.579334 6.3222656 24.744141 6.3222656 L 7.7480469 6.3222656 z M 9.5761719 9.6699219 L 22.916016 9.6699219 C 23.908794 9.6699219 24.708984 10.470112 24.708984 11.462891 L 24.708984 24.804688 C 24.708984 25.797466 23.908794 26.595703 22.916016 26.595703 L 9.5761719 26.595703 C 8.5833937 26.595703 7.7832031 25.797466 7.7832031 24.804688 L 7.7832031 11.462891 C 7.7832031 10.470112 8.5833937 9.6699219 9.5761719 9.6699219 z " />
    <rect
       style="fill:#008080;stroke:none;stroke-width:104.493;stroke-linecap:round;stroke-linejoin:round"
       id="rect787"
       width="26.856415"
       height="4.9003892"
       x="30.558231"
       y="6.4804544"
       ry="2.4501946" />
    <rect
       style="fill:#008080;stroke:none;stroke-width:118.018;stroke-linecap:round;stroke-linejoin:round"
       id="rect869"
       width="34.258537"
       height="4.9003892"
       x="30.558231"
       y="15.558572"
       ry="2.4501946" />
    <path
       id="rect1185"
       style="fill:#008080;stroke:none;stroke-width:59.6701;stroke-linecap:round;stroke-linejoin:round"
       d="M 7.7480469 38.322266 C 5.912854 38.322266 4.4355469 39.799573 4.4355469 41.634766 L 4.4355469 58.630859 C 4.4355469 60.466052 5.912854 61.945312 7.7480469 61.945312 L 24.744141 61.945312 C 26.579334 61.945312 28.056641 60.466052 28.056641 58.630859 L 28.056641 41.634766 C 28.056641 39.799573 26.579334 38.322266 24.744141 38.322266 L 7.7480469 38.322266 z M 9.5761719 41.669922 L 22.916016 41.669922 C 23.908794 41.669922 24.708984 42.470112 24.708984 43.462891 L 24.708984 56.804688 C 24.708984 57.797466 23.908794 58.595703 22.916016 58.595703 L 9.5761719 58.595703 C 8.5833937 58.595703 7.7832031 57.797466 7.7832031 56.804688 L 7.7832031 43.462891 C 7.7832031 42.470112 8.5833937 41.669922 9.5761719 41.669922 z " />
    <rect
       style="fill:#008080;stroke:none;stroke-width:104.493;stroke-linecap:round;stroke-linejoin:round"
       id="rect1189"
       width="26.856415"
       height="4.9003892"
       x="30.558231"
       y="38.480453"
       ry="2.4501946" />
    <rect
       style="fill:#008080;stroke:none;stroke-width:118.018;stroke-linecap:round;stroke-linejoin:round"
       id="rect1191"
       width="34.258537"
       height="4.9003892"
       x="30.558231"
       y="47.558571"
       ry="2.4501946" />
  </g>
</svg>
