<?xml version="1.0" encoding="UTF-8" standalone="no"?>
<svg
   xmlns:dc="http://purl.org/dc/elements/1.1/"
   xmlns:cc="http://creativecommons.org/ns#"
   xmlns:rdf="http://www.w3.org/1999/02/22-rdf-syntax-ns#"
   xmlns:svg="http://www.w3.org/2000/svg"
   xmlns="http://www.w3.org/2000/svg"
   xmlns:sodipodi="http://sodipodi.sourceforge.net/DTD/sodipodi-0.dtd"
   xmlns:inkscape="http://www.inkscape.org/namespaces/inkscape"
   width="22"
   height="22"
   viewBox="0 0 22 22"
   version="1.1"
   id="svg2"
   inkscape:version="0.92.2 5c3e80d, 2017-08-06"
   sodipodi:docname="done.svg"
   inkscape:export-filename="Z:\projects\occam\Large-Icons\group_large.png"
   inkscape:export-xdpi="392.72726"
   inkscape:export-ydpi="392.72726">
  <metadata
     id="metadata14">
    <rdf:RDF>
      <cc:Work
         rdf:about="">
        <dc:format>image/svg+xml</dc:format>
        <dc:type
           rdf:resource="http://purl.org/dc/dcmitype/StillImage" />
        <dc:title>album_collection</dc:title>
      </cc:Work>
    </rdf:RDF>
  </metadata>
  <sodipodi:namedview
     pagecolor="#ffffff"
     bordercolor="#666666"
     borderopacity="1"
     objecttolerance="10"
     gridtolerance="10"
     guidetolerance="10"
     inkscape:pageopacity="0"
     inkscape:pageshadow="2"
     inkscape:window-width="1920"
     inkscape:window-height="1152"
     id="namedview12"
     showgrid="false"
     inkscape:zoom="32"
     inkscape:cx="5.516822"
     inkscape:cy="5.2712303"
     inkscape:window-x="0"
     inkscape:window-y="20"
     inkscape:window-maximized="1"
     inkscape:current-layer="g6299"
     inkscape:snap-others="false"
     inkscape:object-nodes="false"
     inkscape:snap-nodes="false"
     inkscape:snap-global="false" />
  <title
     id="title4">album_collection</title>
  <description
     id="description6">Created with Sketch (http://www.bohemiancoding.com/sketch)</description>
  <defs
     id="defs8" />
  <g
     id="g6299"
     transform="translate(179.67237,-70.223625)">
    <path
       style="fill:#b3b3b3;fill-opacity:1;stroke-width:0.71377462"
       d="M 11 4.765625 A 6.234375 6.234375 0 0 0 4.765625 11 A 6.234375 6.234375 0 0 0 11 17.234375 A 6.234375 6.234375 0 0 0 17.234375 11 A 6.234375 6.234375 0 0 0 17.050781 9.5527344 L 16.037109 10.566406 A 5.0632285 5.0632285 0 0 1 16.0625 11 A 5.0632285 5.0632285 0 0 1 11 16.0625 A 5.0632285 5.0632285 0 0 1 5.9375 11 A 5.0632285 5.0632285 0 0 1 11 5.9375 A 5.0632285 5.0632285 0 0 1 14.279297 7.1484375 L 15.107422 6.3203125 A 6.234375 6.234375 0 0 0 11 4.765625 z "
       transform="translate(-179.67237,70.223625)"
       id="path999" />
    <rect
       style="fill:#b3b3b3;fill-opacity:1;stroke-width:1.23046434"
       id="rect1043"
       width="1.6041911"
       height="5.057281"
       x="-179.96495"
       y="-64.665009"
       transform="rotate(-45)" />
    <path
       sodipodi:type="inkscape:offset"
       inkscape:radius="0"
       inkscape:original="M 59.607422 -179.96484 L 59.607422 -170.33984 L 61.212891 -170.33984 L 61.212891 -179.96484 L 59.607422 -179.96484 z "
       style="fill:#b3b3b3;fill-opacity:1;stroke-width:1.6975174"
       id="rect1045"
       d="m 59.607422,-179.96484 v 9.625 h 1.605469 v -9.625 z"
       transform="rotate(-135)" />
  </g>
</svg>
